<?xml version="1.0" encoding="UTF-8"?>
<svg width="23px" height="23px" viewBox="0 0 23 23" version="1.1" xmlns="http://www.w3.org/2000/svg" xmlns:xlink="http://www.w3.org/1999/xlink">
    <!-- Generator: Sketch 58 (84663) - https://sketch.com -->
    <title>imporovements-icon</title>
    <desc>Created with Sketch.</desc>
    <g id="Landings" stroke="none" stroke-width="1" fill="none" fill-rule="evenodd">
        <g id="updates_page5" transform="translate(-249.000000, -702.000000)" fill="#000000">
            <path d="M271.94679,702.00239 L271.94679,711.082969 L263.321969,711.082969 L266.811295,707.488995 C263.341036,704.041623 257.722541,703.914197 254.252282,707.361569 C250.782023,710.80894 250.782023,716.39107 254.252282,719.838501 C257.722541,723.285932 263.341036,723.285932 266.811295,719.838501 C268.540049,718.117982 269.404456,716.123434 269.39808,713.600005 L269.39808,713.600005 L271.94679,713.600005 C271.94679,716.123434 270.828132,719.398753 268.590876,721.622704 C264.129114,726.051429 256.883518,726.051429 252.421756,721.622704 C247.959995,717.193979 247.928236,710.012364 252.389997,705.583639 C256.845443,701.154914 264.014769,701.154914 268.470155,705.583639 L268.470155,705.583639 L271.94679,702.00239 Z M261.141974,708.374704 L261.141974,713.791174 L265.591044,716.442029 L264.675811,717.984104 L259.235238,714.747018 L259.235238,708.374704 L261.141974,708.374704 Z" id="imporovements-icon"></path>
        </g>
    </g>
</svg>